{
    "appName": {
        "message": "Diaspora - Optimizer"
    },
    "appDesc": {
        "message": "Versucht Diaspora* ein klein wenig besser zu machen"
    },
    "bellTitle": {
        "message": "Optimizer-Erweiterungen"
    },
    "reply": {
        "message": "Antworten"
    },
    "addReaction": {
        "message": "Interagieren"
    },
    "lang": {
        "message": "de"
    },
    "shareWithComment": {
        "message": "Mit Kommentar teilen"
    }
    ,
    "sharedFrom": {
        "message":"Ursprünglich geteilt von"
    }}